<?xml version="1.0" encoding="utf-8"?>
<!-- Generator: Adobe Illustrator 15.0.0, SVG Export Plug-In . SVG Version: 6.00 Build 0)  -->
<!DOCTYPE svg PUBLIC "-//W3C//DTD SVG 1.1//EN" "http://www.w3.org/Graphics/SVG/1.1/DTD/svg11.dtd">
<svg version="1.1" id="Layer_1" xmlns="http://www.w3.org/2000/svg" xmlns:xlink="http://www.w3.org/1999/xlink" x="0px" y="0px"
	 width="49.925px" height="49.925px" viewBox="0 0 49.925 49.925" enable-background="new 0 0 49.925 49.925" xml:space="preserve">
<path fill="#FFFFFF" d="M47.845,40.564c0,0.574-0.466,1.04-1.04,1.04l0,0H3.12c-0.575,0-1.04-0.466-1.04-1.04l0,0V15.601
	c0-0.574,0.465-1.04,1.04-1.04l0,0h3.12v-2.08H3.12c-1.723,0-3.12,1.397-3.12,3.12v24.963c0.001,1.723,1.398,3.117,3.12,3.117H16
	l-2.08,4.16h-2.479v2.08h27.043v-2.08h-2.479l-2.08-4.16H46.8c1.723,0,3.119-1.396,3.119-3.12v-14.56h-2.08L47.845,40.564z
	 M33.681,47.845H16.244l2.08-4.16H31.6L33.681,47.845z"/>
<path fill="#FFFFFF" d="M37.443,9.36V7.28c0-1.723-1.396-3.12-3.119-3.12h-2.08v2.08h2.08c0.574,0,1.039,0.466,1.039,1.04l0,0v2.08
	H37.443z"/>
<rect x="28.737" y="3.107" fill="#FFFFFF" width="1" height="4"/>
<path fill="#FFFFFF" d="M30.164,20.802v-6.241c0-1.723-1.397-3.12-3.121-3.12l0,0h-4.161c-1.723,0-3.12,1.397-3.12,3.12l0,0v2.08
	h-3.12v2.08h3.12v2.08c0,2.872,2.328,5.201,5.2,5.201s5.2-2.329,5.2-5.201L30.164,20.802z M21.842,14.561
	c0-0.574,0.466-1.04,1.04-1.04l0,0h4.161c0.574,0,1.039,0.466,1.039,1.04v2.08h-6.24V14.561z M24.962,23.922
	c-1.723,0-3.12-1.397-3.12-3.12v-2.08h6.242v2.08C28.083,22.525,26.686,23.922,24.962,23.922L24.962,23.922L24.962,23.922z"/>
<path fill="#FFFFFF" d="M6.241,36.4v2.08h37.444V36.4h-2.08v-8.316h-2.08V36.4h-5.199v-5.199c-0.004-2.871-2.33-5.197-5.201-5.201
	h-8.323c-2.87,0.004-5.196,2.33-5.2,5.201V36.4h-5.2v-26h7.281c0.574,0,1.04-0.465,1.04-1.04l0,0V2.08h17.681
	c1.723,0,3.12,1.397,3.12,3.12v4.16h2.08V5.2C41.6,2.33,39.275,0.004,36.404,0H17.682c-0.275-0.001-0.54,0.107-0.735,0.3
	L8.626,8.626c-0.193,0.196-0.301,0.46-0.3,0.735V36.4H6.241z M11.872,8.321l4.77-4.77v4.77H11.872z M17.682,31.201
	c0-1.724,1.397-3.121,3.12-3.121l0,0h8.321c1.723,0.002,3.119,1.398,3.119,3.121V36.4h-2.08v-3.12h-2.08v3.12h-6.241v-3.12h-2.08
	v3.12h-2.08L17.682,31.201z"/>
<path fill="#FFFFFF" d="M46.804,11.441H36.403c-1.724,0-3.12,1.397-3.12,3.12v6.241c0,1.723,1.396,3.12,3.12,3.12h1.04v2.08
	c0,0.574,0.467,1.04,1.041,1.039c0.275,0,0.539-0.109,0.734-0.304l2.816-2.816h4.77c1.723,0,3.119-1.397,3.119-3.12v-6.24
	C49.923,12.838,48.527,11.441,46.804,11.441z M47.844,20.802c0,0.574-0.466,1.04-1.04,1.04l0,0h-5.2
	c-0.274-0.001-0.54,0.107-0.735,0.3l-1.345,1.345v-0.61c-0.002-0.573-0.468-1.037-1.041-1.036h-2.08c-0.574,0-1.04-0.465-1.04-1.04
	l0,0v-6.24c0-0.574,0.466-1.04,1.04-1.04l0,0h10.4c0.574,0,1.04,0.466,1.04,1.04l0,0L47.844,20.802z"/>
<rect x="37.737" y="17.107" fill="#FFFFFF" width="7" height="2"/>
</svg>
