<?xml version="1.0" encoding="utf-8"?>
<!-- Generator: Adobe Illustrator 15.0.0, SVG Export Plug-In . SVG Version: 6.00 Build 0)  -->
<!DOCTYPE svg PUBLIC "-//W3C//DTD SVG 1.1//EN" "http://www.w3.org/Graphics/SVG/1.1/DTD/svg11.dtd">
<svg version="1.1" id="Layer_1" xmlns="http://www.w3.org/2000/svg" xmlns:xlink="http://www.w3.org/1999/xlink" x="0px" y="0px"
	 width="51.723px" height="51.732px" viewBox="0 0 51.723 51.732" enable-background="new 0 0 51.723 51.732" xml:space="preserve">
<g transform="translate(-2.281 -0.529)">
	<g transform="translate(2.281 0.529)">
		<path fill="#FFFFFF" d="M13.789,0.004c-0.477,0-0.862,0.387-0.862,0.862v4.311c0,0.476,0.386,0.861,0.862,0.861
			c0.476,0,0.861-0.386,0.861-0.861l0,0V1.724h3.448v6.033H7.757C7.281,7.756,6.893,8.139,6.89,8.615c0,0.001,0,0.001,0,0.002v3.449
			c-0.002,0.476,0.383,0.863,0.859,0.865c0.002,0,0.005,0,0.008,0h0.86v4.308c0,0.477,0.386,0.862,0.861,0.862
			c0.477,0,0.862-0.386,0.862-0.862v-4.308h12.067v4.308c-0.001,0.477,0.385,0.862,0.86,0.863c0.477,0,0.862-0.386,0.863-0.861
			c0-0.001,0-0.001,0-0.002v-4.308h0.86c0.476,0.001,0.863-0.383,0.864-0.859c0-0.002,0-0.004,0-0.006V8.617
			c-0.001-0.476-0.389-0.86-0.864-0.859l0,0h-5.171V0.858c0-0.477-0.386-0.862-0.861-0.862L13.789,0.004z M8.616,9.485h15.518v1.719
			H8.615L8.616,9.485z M12.84,14.658c-0.477,0.024-0.842,0.431-0.817,0.906c0.024,0.477,0.431,0.843,0.906,0.817h1.726
			c0.477,0.001,0.863-0.385,0.863-0.86c0.001-0.477-0.385-0.862-0.861-0.863c0,0-0.001,0-0.002,0h-1.727
			c-0.029-0.003-0.06-0.004-0.089-0.004L12.84,14.658z M18.096,16.382h1.724c0.477,0.001,0.863-0.385,0.863-0.86
			c0.001-0.477-0.385-0.862-0.861-0.863c0,0-0.001,0-0.002,0h-1.766c-0.476,0.012-0.853,0.406-0.842,0.883
			C17.224,16.016,17.619,16.393,18.096,16.382L18.096,16.382L18.096,16.382z M39.648,16.382c-0.229,0.001-0.447,0.092-0.608,0.254
			l-3.2,3.199H4.307c-0.476,0-0.862,0.386-0.862,0.862c0,0.11,0.021,0.22,0.063,0.322l2.268,5.646
			c0.178,0.442,0.68,0.656,1.122,0.479c0.441-0.178,0.656-0.68,0.479-1.121l0,0l-1.793-4.463h30.617
			c0.228,0,0.447-0.091,0.608-0.252l3.2-3.2h6.182l-2.835,8.131c-0.175,0.442,0.043,0.943,0.485,1.118
			c0.443,0.175,0.944-0.043,1.119-0.485c0.008-0.021,0.016-0.042,0.021-0.063l3.236-9.278c0.157-0.449-0.08-0.941-0.53-1.098
			c-0.091-0.032-0.187-0.048-0.283-0.049L39.648,16.382z M4.292,26.722c-0.372,0.014-0.691,0.265-0.793,0.623
			c-0.494,1.111-1.548,1.87-2.758,1.985c-0.47,0.075-0.789,0.518-0.714,0.986c0.075,0.47,0.517,0.789,0.986,0.714l0,0
			c1.286-0.197,2.456-0.855,3.293-1.852c0.089,0.106,0.164,0.212,0.271,0.317c1.091,1.039,2.553,1.597,4.059,1.547
			c1.506,0.05,2.97-0.508,4.062-1.547c0.1-0.1,0.168-0.2,0.251-0.295c0.083,0.101,0.151,0.2,0.251,0.295
			c1.091,1.039,2.555,1.597,4.061,1.547c1.504,0.05,2.964-0.508,4.052-1.547c0.101-0.1,0.17-0.2,0.254-0.3
			c0.085,0.1,0.154,0.2,0.254,0.3c1.089,1.039,2.55,1.597,4.055,1.547c1.506,0.05,2.968-0.508,4.059-1.547
			c0.101-0.1,0.169-0.2,0.253-0.3c0.084,0.1,0.152,0.2,0.251,0.3c1.091,1.039,2.554,1.597,4.06,1.547
			c0.574,0.001,1.146-0.074,1.699-0.224v1.072c0.008,1.425,1.161,2.578,2.587,2.586h6.031c0.952,0.001,1.724,0.773,1.723,1.726
			c-0.001,0.951-0.771,1.721-1.723,1.722H31.886c-1.428,0.002-2.585,1.161-2.583,2.589c0.001,1.427,1.157,2.582,2.583,2.584h4.311
			c0.952,0.001,1.724,0.773,1.723,1.726c-0.001,0.95-0.771,1.721-1.723,1.722c-0.476,0-0.862,0.386-0.862,0.861
			c-0.001,0.477,0.385,0.862,0.861,0.863h0.001c1.906,0,3.45-1.545,3.45-3.45s-1.544-3.45-3.45-3.45h-4.311
			c-0.476,0-0.861-0.387-0.861-0.862c0.001-0.476,0.386-0.861,0.861-0.861h12.931c1.905,0,3.45-1.545,3.45-3.45
			s-1.545-3.45-3.45-3.45h-6.031c-0.465,0.012-0.852-0.356-0.862-0.821c0-0.014,0-0.027,0-0.041v-1.866
			c0.226-0.158,0.438-0.335,0.633-0.529c0.1-0.1,0.168-0.2,0.251-0.294c0.083,0.1,0.152,0.2,0.251,0.294
			c2.311,2.063,5.803,2.063,8.113,0c0.107-0.107,0.183-0.214,0.272-0.322c0.673,0.8,1.565,1.386,2.566,1.686L50,49.996H1.731v-16.38
			c0-0.476-0.386-0.862-0.861-0.862c-0.477,0-0.862,0.387-0.862,0.862v17.239c-0.002,0.476,0.383,0.863,0.859,0.865
			c0.002,0,0.004,0,0.006,0h49.993c0.476-0.002,0.86-0.39,0.858-0.865l0,0V30.18c0.01-0.462-0.35-0.849-0.811-0.872
			c-1.185-0.154-2.201-0.919-2.679-2.014c-0.156-0.447-0.646-0.683-1.093-0.526c-0.259,0.09-0.458,0.299-0.538,0.561
			c-0.143,0.359-0.363,0.683-0.646,0.946c-0.756,0.732-1.787,1.112-2.837,1.044c-1.051,0.067-2.082-0.312-2.838-1.044
			c-0.285-0.268-0.509-0.593-0.655-0.955c-0.145-0.452-0.629-0.702-1.081-0.558c-0.267,0.085-0.476,0.295-0.56,0.563
			c-0.146,0.36-0.368,0.684-0.651,0.949c-0.757,0.732-1.787,1.111-2.838,1.044c-1.051,0.068-2.081-0.312-2.837-1.044
			c-0.285-0.268-0.51-0.593-0.657-0.954c-0.145-0.452-0.627-0.702-1.079-0.558c-0.271,0.086-0.48,0.3-0.563,0.57
			c-0.145,0.357-0.366,0.679-0.647,0.941c-0.757,0.732-1.787,1.111-2.838,1.044c-1.051,0.067-2.082-0.312-2.838-1.044
			c-0.285-0.267-0.509-0.593-0.655-0.954c-0.145-0.452-0.628-0.701-1.08-0.557c-0.27,0.087-0.479,0.3-0.561,0.571
			c-0.143,0.357-0.362,0.678-0.644,0.939c-0.756,0.732-1.786,1.112-2.837,1.044c-1.051,0.067-2.081-0.312-2.838-1.044
			c-0.285-0.267-0.508-0.593-0.655-0.954c-0.143-0.453-0.626-0.704-1.079-0.561c-0.267,0.084-0.477,0.293-0.561,0.561
			c-0.146,0.359-0.369,0.684-0.652,0.949c-0.756,0.732-1.787,1.111-2.838,1.044c-1.051,0.07-2.082-0.308-2.84-1.039
			c-0.285-0.268-0.509-0.593-0.657-0.954c-0.117-0.369-0.465-0.614-0.852-0.6L4.292,26.722z M31.586,31.937
			c-0.284,0.016-0.542,0.171-0.689,0.414c-0.157,0.252-0.435,0.403-0.731,0.399H16.37c-1.905,0-3.45,1.545-3.45,3.45
			s1.545,3.45,3.45,3.45c0.476,0,0.862-0.385,0.862-0.861c0.001-0.476-0.385-0.862-0.861-0.862H16.37
			c-0.952-0.002-1.724-0.774-1.723-1.727c0.001-0.95,0.771-1.721,1.723-1.722h13.8c0.891-0.001,1.718-0.458,2.191-1.212
			c0.26-0.399,0.146-0.934-0.253-1.192C31.953,31.973,31.771,31.926,31.586,31.937z M6.886,37.065h3.449
			c0.477,0,0.863-0.387,0.863-0.863s-0.387-0.863-0.863-0.863H6.848c-0.477,0.012-0.854,0.407-0.843,0.884
			c0.012,0.477,0.407,0.854,0.884,0.843H6.886z M19.818,37.925c-0.476,0-0.862,0.386-0.862,0.861
			c-0.001,0.477,0.385,0.862,0.861,0.863h0.001h3.452c0.477,0,0.861,0.387,0.861,0.862c-0.001,0.476-0.386,0.861-0.861,0.861H8.615
			c-1.906,0-3.45,1.545-3.45,3.45s1.544,3.45,3.45,3.45h24.136c0.476,0,0.862-0.385,0.862-0.861c0.001-0.476-0.385-0.862-0.86-0.863
			c-0.001,0-0.002,0-0.002,0H8.615c-0.952-0.001-1.724-0.773-1.723-1.726c0.001-0.95,0.771-1.721,1.723-1.722H23.27
			c1.429-0.002,2.585-1.161,2.584-2.589c-0.002-1.426-1.157-2.582-2.584-2.583L19.818,37.925z M42.232,45.686h3.441
			c0.476-0.001,0.861-0.387,0.861-0.863c-0.001-0.476-0.386-0.86-0.861-0.861h-3.482c-0.476,0.013-0.852,0.409-0.839,0.885
			c0.012,0.477,0.408,0.852,0.884,0.84l0,0H42.232z"/>
	</g>
</g>
</svg>
